<?xml version="1.0" encoding="utf-8"?>
<!-- Generator: Adobe Illustrator 16.0.0, SVG Export Plug-In . SVG Version: 6.00 Build 0)  -->
<!DOCTYPE svg PUBLIC "-//W3C//DTD SVG 1.1//EN" "http://www.w3.org/Graphics/SVG/1.1/DTD/svg11.dtd">
<svg version="1.1" id="Layer_1" xmlns="http://www.w3.org/2000/svg" xmlns:xlink="http://www.w3.org/1999/xlink" x="0px" y="0px"
	 width="1024px" height="768px" viewBox="0 0 1024 768" enable-background="new 0 0 1024 768" xml:space="preserve">
<g>
	<g>
		<path fill="#000000" d="M754.4,751.2H269.6V422.4H752v328.8H754.4z M305.6,715.2H716V458.4H305.6V715.2z"/>
	</g>
	<g>
		<path fill="#000000" d="M605.6,170.4h-336V19.2h336V170.4z M305.6,134.4h264V55.2h-264V134.4L305.6,134.4z"/>
	</g>
	<g>
		<path fill="#000000" d="M879.2,751.2h-732v-732h571.2L879.2,180V751.2z M183.2,715.2h660V194.4L704,55.2H183.2V715.2z"/>
	</g>
</g>
</svg>
